sector_id,prod_na,a_ij
471,CPA_G47,0.00183305643229656
472,CPA_G47,0.0022400379631576997
473,CPA_G47,0.0019124009594777534
474,CPA_G47,0.0033673460833730916
475,CPA_G47,0.001064571837090406
476,CPA_G47,0.0010327031923392227
477,CPA_G47,0.002074161223561135
478,CPA_G47,0.0008055498757355046
479,CPA_G47,0.0015067353917586214
